Library\Bee\artifacts\mvdfrm\Unity.2D.Animation.Editor.ref.dll_E5224B7F0A871AB1.mvfrm
Library\Bee\artifacts\mvdfrm\Unity.2D.Animation.Runtime.ref.dll_7A5B4E3637A927EA.mvfrm
Library\Bee\artifacts\mvdfrm\Unity.2D.Aseprite.Common.ref.dll_59ED2BA84E96F690.mvfrm
Library\Bee\artifacts\mvdfrm\Unity.2D.Aseprite.Editor.ref.dll_56D623A34FBE2112.mvfrm
Library\Bee\artifacts\mvdfrm\Unity.2D.Common.Editor.ref.dll_28DF0342B1EBDA9C.mvfrm
Library\Bee\artifacts\mvdfrm\Unity.2D.Common.Path.Editor.ref.dll_4D60528CC78D55ED.mvfrm
Library\Bee\artifacts\mvdfrm\Unity.2D.Common.Runtime.ref.dll_ED6C3D43989857CF.mvfrm
Library\Bee\artifacts\mvdfrm\Unity.2D.IK.Editor.ref.dll_1615F38C69C76935.mvfrm
Library\Bee\artifacts\mvdfrm\Unity.2D.IK.Runtime.ref.dll_AFE3DB2244A55F26.mvfrm
Library\Bee\artifacts\mvdfrm\Unity.2D.PixelPerfect.Editor.ref.dll_77CC498456856650.mvfrm
Library\Bee\artifacts\mvdfrm\Unity.2D.PixelPerfect.ref.dll_81141996E1438371.mvfrm
Library\Bee\artifacts\mvdfrm\Unity.2D.Psdimporter.Editor.ref.dll_03AE4E6A0170E102.mvfrm
Library\Bee\artifacts\mvdfrm\Unity.2D.Sprite.Editor.ref.dll_493FFFF13AE54DA2.mvfrm
Library\Bee\artifacts\mvdfrm\Unity.2D.SpriteShape.Editor.ref.dll_67324B073E3D6D19.mvfrm
Library\Bee\artifacts\mvdfrm\Unity.2D.SpriteShape.Runtime.ref.dll_E4A047AB35D25B02.mvfrm
Library\Bee\artifacts\mvdfrm\Unity.2D.Tilemap.Editor.ref.dll_B95EBC329496BC77.mvfrm
Library\Bee\artifacts\mvdfrm\Unity.2D.Tilemap.Extras.Editor.ref.dll_7210FA48E5F13324.mvfrm
Library\Bee\artifacts\mvdfrm\Unity.2D.Tilemap.Extras.ref.dll_AD10E379F36BF95D.mvfrm
Library\Bee\artifacts\mvdfrm\Unity.Burst.Editor.ref.dll_030BCB777AA5BDC3.mvfrm
Library\Bee\artifacts\mvdfrm\Unity.Burst.ref.dll_75A67EE1951F90CE.mvfrm
Library\Bee\artifacts\mvdfrm\Unity.Collections.ref.dll_17CA8F61EA9E7873.mvfrm
Library\Bee\artifacts\mvdfrm\Unity.InternalAPIEditorBridge.001.ref.dll_5869ED23107F86A4.mvfrm
Library\Bee\artifacts\mvdfrm\Unity.InternalAPIEditorBridge.005.ref.dll_3BEB9E8BDB75B128.mvfrm
Library\Bee\artifacts\mvdfrm\Unity.InternalAPIEngineBridge.001.ref.dll_4AE4A5CD758E6DE9.mvfrm
Library\Bee\artifacts\mvdfrm\Unity.Mathematics.Editor.ref.dll_64944B6DD477E1FD.mvfrm
Library\Bee\artifacts\mvdfrm\Unity.Mathematics.ref.dll_9B4CF66C9079F0F4.mvfrm
Library\Bee\artifacts\mvdfrm\Unity.PlasticSCM.Editor.ref.dll_9B6D9940AFF80C3C.mvfrm
Library\Bee\artifacts\mvdfrm\Unity.PlayerPrefsEditor.Editor.ref.dll_F52649E6F8C5A487.mvfrm
Library\Bee\artifacts\mvdfrm\Unity.PlayerPrefsEditor.EditorResources.ref.dll_56AA7AC4E5CDFF04.mvfrm
Library\Bee\artifacts\mvdfrm\Unity.PlayerPrefsEditor.Samples.SampleScene.ref.dll_1CD8ED9B27D86E29.mvfrm
Library\Bee\artifacts\mvdfrm\Unity.Rider.Editor.ref.dll_BB682F4C994978A9.mvfrm
Library\Bee\artifacts\mvdfrm\Unity.TextMeshPro.Editor.ref.dll_E01181B6C057CE40.mvfrm
Library\Bee\artifacts\mvdfrm\Unity.TextMeshPro.ref.dll_3701448EC0EF5C81.mvfrm
Library\Bee\artifacts\mvdfrm\Unity.Timeline.Editor.ref.dll_05875DFCD7CD8938.mvfrm
Library\Bee\artifacts\mvdfrm\Unity.Timeline.ref.dll_D34675E5055C5209.mvfrm
Library\Bee\artifacts\mvdfrm\Unity.VisualScripting.Core.Editor.ref.dll_83BC621B72BABDA3.mvfrm
Library\Bee\artifacts\mvdfrm\Unity.VisualScripting.Core.ref.dll_EA71DBF61AC412EE.mvfrm
Library\Bee\artifacts\mvdfrm\Unity.VisualScripting.Flow.Editor.ref.dll_00ED4ACA819948E4.mvfrm
Library\Bee\artifacts\mvdfrm\Unity.VisualScripting.Flow.ref.dll_3182BC4C9CCD879D.mvfrm
Library\Bee\artifacts\mvdfrm\Unity.VisualScripting.SettingsProvider.Editor.ref.dll_95D4598D0844CFCE.mvfrm
Library\Bee\artifacts\mvdfrm\Unity.VisualScripting.Shared.Editor.ref.dll_D971BCE13ACE101D.mvfrm
Library\Bee\artifacts\mvdfrm\Unity.VisualScripting.State.Editor.ref.dll_E0FF03DA7F2CFA69.mvfrm
Library\Bee\artifacts\mvdfrm\Unity.VisualScripting.State.ref.dll_255AEA40301341C8.mvfrm
Library\Bee\artifacts\mvdfrm\Unity.VisualStudio.Editor.ref.dll_7E7DD2F3C2805153.mvfrm
Library\Bee\artifacts\mvdfrm\UnityEditor.TestRunner.ref.dll_84C42244F0436F2D.mvfrm
Library\Bee\artifacts\mvdfrm\UnityEditor.UI.ref.dll_BDC26BE24454476F.mvfrm
Library\Bee\artifacts\mvdfrm\UnityEngine.TestRunner.ref.dll_50E26CF31C06CD18.mvfrm
Library\Bee\artifacts\mvdfrm\UnityEngine.UI.ref.dll_7A28423D4A766FDA.mvfrm
Library\Bee\artifacts\mvdfrm\UnityEditor.Graphs.dll_5C6C31B554C74054.mvfrm
Library\Bee\artifacts\mvdfrm\UnityEditor.CoreModule.dll_FCD254402B275822.mvfrm
Library\Bee\artifacts\mvdfrm\UnityEditor.DeviceSimulatorModule.dll_8EE8C8A4C1839D3F.mvfrm
Library\Bee\artifacts\mvdfrm\UnityEditor.DiagnosticsModule.dll_3F97078DA467E7CD.mvfrm
Library\Bee\artifacts\mvdfrm\UnityEditor.dll_9D5F5233A79F17D3.mvfrm
Library\Bee\artifacts\mvdfrm\UnityEditor.EditorToolbarModule.dll_B0BF28EA3CD0192F.mvfrm
Library\Bee\artifacts\mvdfrm\UnityEditor.GraphViewModule.dll_C63E6083BF929404.mvfrm
Library\Bee\artifacts\mvdfrm\UnityEditor.PresetsUIModule.dll_81A49965C1EAEC09.mvfrm
Library\Bee\artifacts\mvdfrm\UnityEditor.QuickSearchModule.dll_CAA6889AFD3EE426.mvfrm
Library\Bee\artifacts\mvdfrm\UnityEditor.SceneTemplateModule.dll_D45E99A83BBCC367.mvfrm
Library\Bee\artifacts\mvdfrm\UnityEditor.SceneViewModule.dll_04EE438BB4B56112.mvfrm
Library\Bee\artifacts\mvdfrm\UnityEditor.TextCoreFontEngineModule.dll_50CBDD0B9C4D5B60.mvfrm
Library\Bee\artifacts\mvdfrm\UnityEditor.TextCoreTextEngineModule.dll_98B4137D2BD1147E.mvfrm
Library\Bee\artifacts\mvdfrm\UnityEditor.UIBuilderModule.dll_1AC70DA0324B0D38.mvfrm
Library\Bee\artifacts\mvdfrm\UnityEditor.UIElementsModule.dll_13ED98F2A584E81E.mvfrm
Library\Bee\artifacts\mvdfrm\UnityEditor.UIElementsSamplesModule.dll_3C32A090901A652F.mvfrm
Library\Bee\artifacts\mvdfrm\UnityEditor.UnityConnectModule.dll_D7AB84D116C617D8.mvfrm
Library\Bee\artifacts\mvdfrm\UnityEngine.AccessibilityModule.dll_0704053F3C32EB04.mvfrm
Library\Bee\artifacts\mvdfrm\UnityEngine.AIModule.dll_0A43431CBED07636.mvfrm
Library\Bee\artifacts\mvdfrm\UnityEngine.AndroidJNIModule.dll_923681C5EEA456F4.mvfrm
Library\Bee\artifacts\mvdfrm\UnityEngine.AnimationModule.dll_94C3DCAC99EF68AA.mvfrm
Library\Bee\artifacts\mvdfrm\UnityEngine.ARModule.dll_C3B608201BEDD4FF.mvfrm
Library\Bee\artifacts\mvdfrm\UnityEngine.AssetBundleModule.dll_0E8FBB8C5FA59918.mvfrm
Library\Bee\artifacts\mvdfrm\UnityEngine.AudioModule.dll_4BB378CF57078F1C.mvfrm
Library\Bee\artifacts\mvdfrm\UnityEngine.ClothModule.dll_B29BD5CA31246E00.mvfrm
Library\Bee\artifacts\mvdfrm\UnityEngine.ClusterInputModule.dll_5747F9E6C84DEA9E.mvfrm
Library\Bee\artifacts\mvdfrm\UnityEngine.ClusterRendererModule.dll_94958B16313EAAC3.mvfrm
Library\Bee\artifacts\mvdfrm\UnityEngine.ContentLoadModule.dll_A7A614CD2E284105.mvfrm
Library\Bee\artifacts\mvdfrm\UnityEngine.CoreModule.dll_1FF32792D32CC34D.mvfrm
Library\Bee\artifacts\mvdfrm\UnityEngine.CrashReportingModule.dll_EA8B659E8841E905.mvfrm
Library\Bee\artifacts\mvdfrm\UnityEngine.DirectorModule.dll_873DB3548C0CFCAA.mvfrm
Library\Bee\artifacts\mvdfrm\UnityEngine.dll_D003990C0612A4B8.mvfrm
Library\Bee\artifacts\mvdfrm\UnityEngine.DSPGraphModule.dll_8C8F14BDFE6DCDCB.mvfrm
Library\Bee\artifacts\mvdfrm\UnityEngine.GameCenterModule.dll_BC83CBE0B4E547E5.mvfrm
Library\Bee\artifacts\mvdfrm\UnityEngine.GIModule.dll_A27F8C2A5A7F5E50.mvfrm
Library\Bee\artifacts\mvdfrm\UnityEngine.GridModule.dll_FD644380EB815944.mvfrm
Library\Bee\artifacts\mvdfrm\UnityEngine.HotReloadModule.dll_160C9AB27522842C.mvfrm
Library\Bee\artifacts\mvdfrm\UnityEngine.ImageConversionModule.dll_008788C6B36362B7.mvfrm
Library\Bee\artifacts\mvdfrm\UnityEngine.IMGUIModule.dll_841318361D3922FD.mvfrm
Library\Bee\artifacts\mvdfrm\UnityEngine.InputLegacyModule.dll_9FD4D6AAF7974F09.mvfrm
Library\Bee\artifacts\mvdfrm\UnityEngine.InputModule.dll_B229407FCD3FB3C0.mvfrm
Library\Bee\artifacts\mvdfrm\UnityEngine.JSONSerializeModule.dll_671B8E7B3B6E4B8E.mvfrm
Library\Bee\artifacts\mvdfrm\UnityEngine.LocalizationModule.dll_9594C4395FC9DD97.mvfrm
Library\Bee\artifacts\mvdfrm\UnityEngine.NVIDIAModule.dll_E0F8D0ECD10C1359.mvfrm
Library\Bee\artifacts\mvdfrm\UnityEngine.ParticleSystemModule.dll_3D9DAEEAF6537493.mvfrm
Library\Bee\artifacts\mvdfrm\UnityEngine.PerformanceReportingModule.dll_C8A78E4D3290E50C.mvfrm
Library\Bee\artifacts\mvdfrm\UnityEngine.Physics2DModule.dll_E169CC9D3AEC603F.mvfrm
Library\Bee\artifacts\mvdfrm\UnityEngine.PhysicsModule.dll_29D658AE02F0756D.mvfrm
Library\Bee\artifacts\mvdfrm\UnityEngine.ProfilerModule.dll_B983EC8B256683B7.mvfrm
Library\Bee\artifacts\mvdfrm\UnityEngine.PropertiesModule.dll_E9BF0B1F27D0AC21.mvfrm
Library\Bee\artifacts\mvdfrm\UnityEngine.RuntimeInitializeOnLoadManagerInitializerModule.dll_E4E4EEE13444CF08.mvfrm
Library\Bee\artifacts\mvdfrm\UnityEngine.ScreenCaptureModule.dll_81033C004FDA77F0.mvfrm
Library\Bee\artifacts\mvdfrm\UnityEngine.SharedInternalsModule.dll_8498C79C2A915E07.mvfrm
Library\Bee\artifacts\mvdfrm\UnityEngine.SpriteMaskModule.dll_A5B03E70D654DD5F.mvfrm
Library\Bee\artifacts\mvdfrm\UnityEngine.SpriteShapeModule.dll_27F0E8E71547D122.mvfrm
Library\Bee\artifacts\mvdfrm\UnityEngine.StreamingModule.dll_4958C9FCE9771FE8.mvfrm
Library\Bee\artifacts\mvdfrm\UnityEngine.SubstanceModule.dll_2603DE4634CA1DF6.mvfrm
Library\Bee\artifacts\mvdfrm\UnityEngine.SubsystemsModule.dll_105DA4D2A49CC572.mvfrm
Library\Bee\artifacts\mvdfrm\UnityEngine.TerrainModule.dll_441CD41CD8AEBE5B.mvfrm
Library\Bee\artifacts\mvdfrm\UnityEngine.TerrainPhysicsModule.dll_3E1857BE0F966F20.mvfrm
Library\Bee\artifacts\mvdfrm\UnityEngine.TextCoreFontEngineModule.dll_CF2B585EAF4B1A2B.mvfrm
Library\Bee\artifacts\mvdfrm\UnityEngine.TextCoreTextEngineModule.dll_17138ED03ECED349.mvfrm
Library\Bee\artifacts\mvdfrm\UnityEngine.TextRenderingModule.dll_AA42AE0B0711F7E5.mvfrm
Library\Bee\artifacts\mvdfrm\UnityEngine.TilemapModule.dll_E3193B9DF06B9F64.mvfrm
Library\Bee\artifacts\mvdfrm\UnityEngine.TLSModule.dll_EB4B810A1EE02301.mvfrm
Library\Bee\artifacts\mvdfrm\UnityEngine.UIElementsModule.dll_149C063AA7C90169.mvfrm
Library\Bee\artifacts\mvdfrm\UnityEngine.UIModule.dll_05B6E14A1B177BE2.mvfrm
Library\Bee\artifacts\mvdfrm\UnityEngine.UmbraModule.dll_C68824E7E42E3A8F.mvfrm
Library\Bee\artifacts\mvdfrm\UnityEngine.UnityAnalyticsCommonModule.dll_63E64B914C79836A.mvfrm
Library\Bee\artifacts\mvdfrm\UnityEngine.UnityAnalyticsModule.dll_5D3D1FB4A27AC68F.mvfrm
Library\Bee\artifacts\mvdfrm\UnityEngine.UnityConnectModule.dll_C50B08E0114E1883.mvfrm
Library\Bee\artifacts\mvdfrm\UnityEngine.UnityCurlModule.dll_C7E07DDE0A035A97.mvfrm
Library\Bee\artifacts\mvdfrm\UnityEngine.UnityTestProtocolModule.dll_F7F55682EA15BA85.mvfrm
Library\Bee\artifacts\mvdfrm\UnityEngine.UnityWebRequestAssetBundleModule.dll_2E941F564606BCA0.mvfrm
Library\Bee\artifacts\mvdfrm\UnityEngine.UnityWebRequestAudioModule.dll_40A3E22BB8FBAFA4.mvfrm
Library\Bee\artifacts\mvdfrm\UnityEngine.UnityWebRequestModule.dll_12269070BE57FD36.mvfrm
Library\Bee\artifacts\mvdfrm\UnityEngine.UnityWebRequestTextureModule.dll_7FEAC954374C61F9.mvfrm
Library\Bee\artifacts\mvdfrm\UnityEngine.UnityWebRequestWWWModule.dll_E1D5D42C2E8E8FB5.mvfrm
Library\Bee\artifacts\mvdfrm\UnityEngine.VehiclesModule.dll_FF00ACD40636CC45.mvfrm
Library\Bee\artifacts\mvdfrm\UnityEngine.VFXModule.dll_6C2A1978F54D8C6E.mvfrm
Library\Bee\artifacts\mvdfrm\UnityEngine.VideoModule.dll_70BCFD3A1999AAC1.mvfrm
Library\Bee\artifacts\mvdfrm\UnityEngine.VirtualTexturingModule.dll_E36002D4CD39BFAB.mvfrm
Library\Bee\artifacts\mvdfrm\UnityEngine.VRModule.dll_588907CFBCD2015A.mvfrm
Library\Bee\artifacts\mvdfrm\UnityEngine.WindModule.dll_964202BB646341B6.mvfrm
Library\Bee\artifacts\mvdfrm\UnityEngine.XRModule.dll_8B47CAD4460C4EB8.mvfrm
Library\Bee\artifacts\mvdfrm\Unity.Android.Gradle.dll_6D08C2A91FB1B30A.mvfrm
Library\Bee\artifacts\mvdfrm\Unity.Android.GradleProject.dll_A7F610595EDA9B4B.mvfrm
Library\Bee\artifacts\mvdfrm\Unity.Android.Types.dll_394A94084F7AFCD2.mvfrm
Library\Bee\artifacts\mvdfrm\UnityEditor.Android.Extensions.dll_AA5EBBE432F8A98A.mvfrm
Library\Bee\artifacts\mvdfrm\UnityEngine.WebGLModule.dll_516CB0DA0025B1F1.mvfrm
Library\Bee\artifacts\mvdfrm\UnityEditor.WebGL.Extensions.dll_AE5BA0420FB87DAE.mvfrm
Library\Bee\artifacts\mvdfrm\UnityEditor.WindowsStandalone.Extensions.dll_17D4A7204455AD9E.mvfrm
Library\Bee\artifacts\mvdfrm\Unity.Plastic.Antlr3.Runtime.dll_D861B4C23F45CF48.mvfrm
Library\Bee\artifacts\mvdfrm\Unity.Plastic.Newtonsoft.Json.dll_C14F84B577BAB56D.mvfrm
Library\Bee\artifacts\mvdfrm\Unity.Collections.LowLevel.ILSupport.dll_2E40CE80E145E521.mvfrm
Library\Bee\artifacts\mvdfrm\Unity.VisualScripting.IonicZip.dll_3753AE2E22DD17B6.mvfrm
Library\Bee\artifacts\mvdfrm\Unity.VisualScripting.YamlDotNet.dll_B9EB2E0105A28BA6.mvfrm
Library\Bee\artifacts\mvdfrm\Unity.VisualScripting.TextureAssets.dll_51095754C66FE99E.mvfrm
Library\Bee\artifacts\mvdfrm\Unity.VisualScripting.Antlr3.Runtime.dll_6B5854E2366B9BC5.mvfrm