%YAML 1.1
%TAG !u! tag:unity3d.com,2011:
--- !u!114 &11400000
MonoBehaviour:
  m_ObjectHideFlags: 0
  m_CorrespondingSourceObject: {fileID: 0}
  m_PrefabInstance: {fileID: 0}
  m_PrefabAsset: {fileID: 0}
  m_GameObject: {fileID: 0}
  m_Enabled: 1
  m_EditorHideFlags: 0
  m_Script: {fileID: 11500000, guid: 84a92b25f83d49b9bc132d206b370281, type: 3}
  m_Name: EquationMap2
  m_EditorClassIdentifier: 
  hashCode: -1463025646
  material: {fileID: 6531130159517211508}
  materialHashCode: 0
  m_Version: 1.1.0
  m_FaceInfo:
    m_FaceIndex: 0
    m_FamilyName: 
    m_StyleName: 
    m_PointSize: 0
    m_Scale: 0
    m_LineHeight: 0
    m_AscentLine: 0
    m_CapLine: 0
    m_MeanLine: 0
    m_Baseline: 0
    m_DescentLine: 0
    m_SuperscriptOffset: 0
    m_SuperscriptSize: 0
    m_SubscriptOffset: 0
    m_SubscriptSize: 0
    m_UnderlineOffset: 0
    m_UnderlineThickness: 0
    m_StrikethroughOffset: 0
    m_StrikethroughThickness: 0
    m_TabWidth: 0
  spriteSheet: {fileID: 2800000, guid: ba132609bcbebfd4ca04947d6b0297e5, type: 3}
  m_SpriteCharacterTable:
  - m_ElementType: 2
    m_Unicode: 65534
    m_GlyphIndex: 0
    m_Scale: 1
    m_Name: 5b
    m_HashCode: 1719
  - m_ElementType: 2
    m_Unicode: 65534
    m_GlyphIndex: 1
    m_Scale: 1
    m_Name: 5a
    m_HashCode: 1716
  - m_ElementType: 2
    m_Unicode: 65534
    m_GlyphIndex: 2
    m_Scale: 1
    m_Name: 5d
    m_HashCode: 1713
  - m_ElementType: 2
    m_Unicode: 65534
    m_GlyphIndex: 3
    m_Scale: 1
    m_Name: 3e
    m_HashCode: 1782
  - m_ElementType: 2
    m_Unicode: 65534
    m_GlyphIndex: 4
    m_Scale: 1
    m_Name: 1c
    m_HashCode: 1586
  - m_ElementType: 2
    m_Unicode: 65534
    m_GlyphIndex: 5
    m_Scale: 1
    m_Name: 3
    m_HashCode: 51
  - m_ElementType: 2
    m_Unicode: 65534
    m_GlyphIndex: 6
    m_Scale: 1.8
    m_Name: 5
    m_HashCode: 53
  - m_ElementType: 2
    m_Unicode: 65534
    m_GlyphIndex: 7
    m_Scale: 1
    m_Name: 1e
    m_HashCode: 1588
  - m_ElementType: 2
    m_Unicode: 65534
    m_GlyphIndex: 8
    m_Scale: 1
    m_Name: 2
    m_HashCode: 50
  - m_ElementType: 2
    m_Unicode: 65534
    m_GlyphIndex: 9
    m_Scale: 1
    m_Name: 5e
    m_HashCode: 1712
  - m_ElementType: 2
    m_Unicode: 65534
    m_GlyphIndex: 10
    m_Scale: 1
    m_Name: 5c
    m_HashCode: 1718
  - m_ElementType: 2
    m_Unicode: 65534
    m_GlyphIndex: 11
    m_Scale: 1.15
    m_Name: 1
    m_HashCode: 49
  - m_ElementType: 2
    m_Unicode: 65534
    m_GlyphIndex: 12
    m_Scale: 1
    m_Name: 3d
    m_HashCode: 1783
  - m_ElementType: 2
    m_Unicode: 65534
    m_GlyphIndex: 13
    m_Scale: 1
    m_Name: 1d
    m_HashCode: 1589
  - m_ElementType: 2
    m_Unicode: 65534
    m_GlyphIndex: 14
    m_Scale: 1
    m_Name: 3a
    m_HashCode: 1778
  - m_ElementType: 2
    m_Unicode: 65534
    m_GlyphIndex: 15
    m_Scale: 1
    m_Name: 3b
    m_HashCode: 1777
  - m_ElementType: 2
    m_Unicode: 65534
    m_GlyphIndex: 16
    m_Scale: 1
    m_Name: 3c
    m_HashCode: 1776
  - m_ElementType: 2
    m_Unicode: 65534
    m_GlyphIndex: 17
    m_Scale: 1.3
    m_Name: 7
    m_HashCode: 55
  - m_ElementType: 2
    m_Unicode: 65534
    m_GlyphIndex: 18
    m_Scale: 1
    m_Name: 7b
    m_HashCode: 1909
  - m_ElementType: 2
    m_Unicode: 65534
    m_GlyphIndex: 19
    m_Scale: 1
    m_Name: 7d
    m_HashCode: 1907
  - m_ElementType: 2
    m_Unicode: 65534
    m_GlyphIndex: 20
    m_Scale: 1
    m_Name: 7a
    m_HashCode: 1910
  - m_ElementType: 2
    m_Unicode: 65534
    m_GlyphIndex: 21
    m_Scale: 1
    m_Name: 6b
    m_HashCode: 1684
  - m_ElementType: 2
    m_Unicode: 65534
    m_GlyphIndex: 22
    m_Scale: 1
    m_Name: 6c
    m_HashCode: 1685
  - m_ElementType: 2
    m_Unicode: 65534
    m_GlyphIndex: 23
    m_Scale: 1
    m_Name: 7c
    m_HashCode: 1908
  - m_ElementType: 2
    m_Unicode: 65534
    m_GlyphIndex: 24
    m_Scale: 1
    m_Name: 7e
    m_HashCode: 1906
  - m_ElementType: 2
    m_Unicode: 65534
    m_GlyphIndex: 25
    m_Scale: 1
    m_Name: 6d
    m_HashCode: 1682
  - m_ElementType: 2
    m_Unicode: 65534
    m_GlyphIndex: 26
    m_Scale: 1
    m_Name: 6a
    m_HashCode: 1687
  - m_ElementType: 2
    m_Unicode: 65534
    m_GlyphIndex: 27
    m_Scale: 1
    m_Name: 6e
    m_HashCode: 1683
  - m_ElementType: 2
    m_Unicode: 65534
    m_GlyphIndex: 28
    m_Scale: 1.6
    m_Name: 6
    m_HashCode: 54
  - m_ElementType: 2
    m_Unicode: 65534
    m_GlyphIndex: 29
    m_Scale: 1
    m_Name: 10
    m_HashCode: 1633
  - m_ElementType: 2
    m_Unicode: 65534
    m_GlyphIndex: 30
    m_Scale: 1.4
    m_Name: 12
    m_HashCode: 1635
  - m_ElementType: 2
    m_Unicode: 65534
    m_GlyphIndex: 31
    m_Scale: 1
    m_Name: 12b
    m_HashCode: 53921
  - m_ElementType: 2
    m_Unicode: 65534
    m_GlyphIndex: 32
    m_Scale: 1
    m_Name: 12d
    m_HashCode: 53927
  - m_ElementType: 2
    m_Unicode: 65534
    m_GlyphIndex: 33
    m_Scale: 1
    m_Name: 10e
    m_HashCode: 53988
  - m_ElementType: 2
    m_Unicode: 65534
    m_GlyphIndex: 34
    m_Scale: 1
    m_Name: 8a
    m_HashCode: 1881
  - m_ElementType: 2
    m_Unicode: 65534
    m_GlyphIndex: 35
    m_Scale: 2
    m_Name: 8
    m_HashCode: 56
  - m_ElementType: 2
    m_Unicode: 65534
    m_GlyphIndex: 36
    m_Scale: 1
    m_Name: 8b
    m_HashCode: 1882
  - m_ElementType: 2
    m_Unicode: 65534
    m_GlyphIndex: 37
    m_Scale: 1
    m_Name: 8c
    m_HashCode: 1883
  - m_ElementType: 2
    m_Unicode: 65534
    m_GlyphIndex: 38
    m_Scale: 1
    m_Name: 8d
    m_HashCode: 1884
  - m_ElementType: 2
    m_Unicode: 65534
    m_GlyphIndex: 39
    m_Scale: 1
    m_Name: 8e
    m_HashCode: 1885
  - m_ElementType: 2
    m_Unicode: 65534
    m_GlyphIndex: 40
    m_Scale: 1
    m_Name: 10a
    m_HashCode: 53984
  - m_ElementType: 2
    m_Unicode: 65534
    m_GlyphIndex: 41
    m_Scale: 1
    m_Name: 12a
    m_HashCode: 53922
  - m_ElementType: 2
    m_Unicode: 65534
    m_GlyphIndex: 42
    m_Scale: 1
    m_Name: 12e
    m_HashCode: 53926
  - m_ElementType: 2
    m_Unicode: 65534
    m_GlyphIndex: 43
    m_Scale: 1
    m_Name: 12c
    m_HashCode: 53920
  - m_ElementType: 2
    m_Unicode: 65534
    m_GlyphIndex: 44
    m_Scale: 1
    m_Name: 10d
    m_HashCode: 53989
  - m_ElementType: 2
    m_Unicode: 65534
    m_GlyphIndex: 45
    m_Scale: 1
    m_Name: 9
    m_HashCode: 57
  - m_ElementType: 2
    m_Unicode: 65534
    m_GlyphIndex: 46
    m_Scale: 1
    m_Name: 10b
    m_HashCode: 53987
  - m_ElementType: 2
    m_Unicode: 65534
    m_GlyphIndex: 47
    m_Scale: 1.4
    m_Name: 11
    m_HashCode: 1632
  - m_ElementType: 2
    m_Unicode: 65534
    m_GlyphIndex: 48
    m_Scale: 1
    m_Name: 10c
    m_HashCode: 53986
  m_SpriteGlyphTable:
  - m_Index: 0
    m_Metrics:
      m_Width: 138.5
      m_Height: 41.5
      m_HorizontalBearingX: -69.25
      m_HorizontalBearingY: 20.75
      m_HorizontalAdvance: 138.5
    m_GlyphRect:
      m_X: 1284
      m_Y: 463
      m_Width: 138
      m_Height: 41
    m_Scale: 2
    m_AtlasIndex: 0
    sprite: {fileID: -1576071487, guid: ba132609bcbebfd4ca04947d6b0297e5, type: 3}
  - m_Index: 1
    m_Metrics:
      m_Width: 135.5
      m_Height: 43
      m_HorizontalBearingX: -67.75
      m_HorizontalBearingY: 21.5
      m_HorizontalAdvance: 135.5
    m_GlyphRect:
      m_X: 1602
      m_Y: 459
      m_Width: 135
      m_Height: 43
    m_Scale: 2
    m_AtlasIndex: 0
    sprite: {fileID: 1126660634, guid: ba132609bcbebfd4ca04947d6b0297e5, type: 3}
  - m_Index: 2
    m_Metrics:
      m_Width: 135
      m_Height: 44
      m_HorizontalBearingX: -67.5
      m_HorizontalBearingY: 22
      m_HorizontalAdvance: 135
    m_GlyphRect:
      m_X: 1447
      m_Y: 457
      m_Width: 135
      m_Height: 44
    m_Scale: 2
    m_AtlasIndex: 0
    sprite: {fileID: -687299016, guid: ba132609bcbebfd4ca04947d6b0297e5, type: 3}
  - m_Index: 3
    m_Metrics:
      m_Width: 83
      m_Height: 58
      m_HorizontalBearingX: -41.5
      m_HorizontalBearingY: 29
      m_HorizontalAdvance: 83
    m_GlyphRect:
      m_X: 1047
      m_Y: 449
      m_Width: 83
      m_Height: 58
    m_Scale: 2
    m_AtlasIndex: 0
    sprite: {fileID: 32173689, guid: ba132609bcbebfd4ca04947d6b0297e5, type: 3}
  - m_Index: 4
    m_Metrics:
      m_Width: 99
      m_Height: 60
      m_HorizontalBearingX: -49.5
      m_HorizontalBearingY: 30
      m_HorizontalAdvance: 99
    m_GlyphRect:
      m_X: 263
      m_Y: 448
      m_Width: 99
      m_Height: 60
    m_Scale: 2
    m_AtlasIndex: 0
    sprite: {fileID: 618669389, guid: ba132609bcbebfd4ca04947d6b0297e5, type: 3}
  - m_Index: 5
    m_Metrics:
      m_Width: 305
      m_Height: 61
      m_HorizontalBearingX: 0.5
      m_HorizontalBearingY: 45.4
      m_HorizontalAdvance: 305
    m_GlyphRect:
      m_X: 721
      m_Y: 446
      m_Width: 305
      m_Height: 61
    m_Scale: 2
    m_AtlasIndex: 0
    sprite: {fileID: -23894633, guid: ba132609bcbebfd4ca04947d6b0297e5, type: 3}
  - m_Index: 6
    m_Metrics:
      m_Width: 103
      m_Height: 74.5
      m_HorizontalBearingX: -30.6
      m_HorizontalBearingY: 38.9
      m_HorizontalAdvance: 78.4
    m_GlyphRect:
      m_X: 1165
      m_Y: 430
      m_Width: 103
      m_Height: 74
    m_Scale: 2
    m_AtlasIndex: 0
    sprite: {fileID: 329867233, guid: ba132609bcbebfd4ca04947d6b0297e5, type: 3}
  - m_Index: 7
    m_Metrics:
      m_Width: 165.5
      m_Height: 85
      m_HorizontalBearingX: -82.75
      m_HorizontalBearingY: 42.5
      m_HorizontalAdvance: 165.5
    m_GlyphRect:
      m_X: 392
      m_Y: 415
      m_Width: 165
      m_Height: 85
    m_Scale: 2
    m_AtlasIndex: 0
    sprite: {fileID: 1996032841, guid: ba132609bcbebfd4ca04947d6b0297e5, type: 3}
  - m_Index: 8
    m_Metrics:
      m_Width: 110.5
      m_Height: 78
      m_HorizontalBearingX: 3.1
      m_HorizontalBearingY: 59.3
      m_HorizontalAdvance: 117.6
    m_GlyphRect:
      m_X: 590
      m_Y: 410
      m_Width: 110
      m_Height: 78
    m_Scale: 2
    m_AtlasIndex: 0
    sprite: {fileID: 665950136, guid: ba132609bcbebfd4ca04947d6b0297e5, type: 3}
  - m_Index: 9
    m_Metrics:
      m_Width: 136.5
      m_Height: 42.5
      m_HorizontalBearingX: -68.25
      m_HorizontalBearingY: 21.25
      m_HorizontalAdvance: 136.5
    m_GlyphRect:
      m_X: 1441
      m_Y: 406
      m_Width: 136
      m_Height: 42
    m_Scale: 2
    m_AtlasIndex: 0
    sprite: {fileID: 1331926108, guid: ba132609bcbebfd4ca04947d6b0297e5, type: 3}
  - m_Index: 10
    m_Metrics:
      m_Width: 137
      m_Height: 43.5
      m_HorizontalBearingX: -68.5
      m_HorizontalBearingY: 21.75
      m_HorizontalAdvance: 137
    m_GlyphRect:
      m_X: 1285
      m_Y: 405
      m_Width: 137
      m_Height: 43
    m_Scale: 2
    m_AtlasIndex: 0
    sprite: {fileID: -1496875779, guid: ba132609bcbebfd4ca04947d6b0297e5, type: 3}
  - m_Index: 11
    m_Metrics:
      m_Width: 233
      m_Height: 110
      m_HorizontalBearingX: -116.5
      m_HorizontalBearingY: 75.5
      m_HorizontalAdvance: 137
    m_GlyphRect:
      m_X: 10
      m_Y: 393
      m_Width: 233
      m_Height: 110
    m_Scale: 2
    m_AtlasIndex: 0
    sprite: {fileID: -1819425333, guid: ba132609bcbebfd4ca04947d6b0297e5, type: 3}
  - m_Index: 12
    m_Metrics:
      m_Width: 96
      m_Height: 55.5
      m_HorizontalBearingX: -48
      m_HorizontalBearingY: 27.75
      m_HorizontalAdvance: 96
    m_GlyphRect:
      m_X: 1026
      m_Y: 384
      m_Width: 96
      m_Height: 55
    m_Scale: 2
    m_AtlasIndex: 0
    sprite: {fileID: 1800377068, guid: ba132609bcbebfd4ca04947d6b0297e5, type: 3}
  - m_Index: 13
    m_Metrics:
      m_Width: 71
      m_Height: 57.5
      m_HorizontalBearingX: -35.5
      m_HorizontalBearingY: 28.75
      m_HorizontalAdvance: 71
    m_GlyphRect:
      m_X: 261
      m_Y: 383
      m_Width: 71
      m_Height: 57
    m_Scale: 2
    m_AtlasIndex: 0
    sprite: {fileID: 1451980466, guid: ba132609bcbebfd4ca04947d6b0297e5, type: 3}
  - m_Index: 14
    m_Metrics:
      m_Width: 80
      m_Height: 60.5
      m_HorizontalBearingX: -40
      m_HorizontalBearingY: 30.25
      m_HorizontalAdvance: 80
    m_GlyphRect:
      m_X: 733
      m_Y: 381
      m_Width: 80
      m_Height: 60
    m_Scale: 2
    m_AtlasIndex: 0
    sprite: {fileID: -128077912, guid: ba132609bcbebfd4ca04947d6b0297e5, type: 3}
  - m_Index: 15
    m_Metrics:
      m_Width: 83
      m_Height: 60.5
      m_HorizontalBearingX: -41.5
      m_HorizontalBearingY: 30.25
      m_HorizontalAdvance: 83
    m_GlyphRect:
      m_X: 829
      m_Y: 381
      m_Width: 83
      m_Height: 60
    m_Scale: 2
    m_AtlasIndex: 0
    sprite: {fileID: -1533751563, guid: ba132609bcbebfd4ca04947d6b0297e5, type: 3}
  - m_Index: 16
    m_Metrics:
      m_Width: 84
      m_Height: 60.5
      m_HorizontalBearingX: -42
      m_HorizontalBearingY: 30.25
      m_HorizontalAdvance: 84
    m_GlyphRect:
      m_X: 924
      m_Y: 381
      m_Width: 84
      m_Height: 60
    m_Scale: 2
    m_AtlasIndex: 0
    sprite: {fileID: 268401532, guid: ba132609bcbebfd4ca04947d6b0297e5, type: 3}
  - m_Index: 17
    m_Metrics:
      m_Width: 259.5
      m_Height: 77
      m_HorizontalBearingX: 7.9
      m_HorizontalBearingY: 52.62
      m_HorizontalAdvance: 270
    m_GlyphRect:
      m_X: 726
      m_Y: 285
      m_Width: 259
      m_Height: 77
    m_Scale: 2
    m_AtlasIndex: 0
    sprite: {fileID: -1163344944, guid: ba132609bcbebfd4ca04947d6b0297e5, type: 3}
  - m_Index: 18
    m_Metrics:
      m_Width: 115
      m_Height: 85
      m_HorizontalBearingX: -57.5
      m_HorizontalBearingY: 42.5
      m_HorizontalAdvance: 115
    m_GlyphRect:
      m_X: 1175
      m_Y: 282
      m_Width: 115
      m_Height: 85
    m_Scale: 2
    m_AtlasIndex: 0
    sprite: {fileID: -2072747794, guid: ba132609bcbebfd4ca04947d6b0297e5, type: 3}
  - m_Index: 19
    m_Metrics:
      m_Width: 116
      m_Height: 88
      m_HorizontalBearingX: -58
      m_HorizontalBearingY: 44
      m_HorizontalAdvance: 116
    m_GlyphRect:
      m_X: 1417
      m_Y: 282
      m_Width: 116
      m_Height: 88
    m_Scale: 2
    m_AtlasIndex: 0
    sprite: {fileID: 197880324, guid: ba132609bcbebfd4ca04947d6b0297e5, type: 3}
  - m_Index: 20
    m_Metrics:
      m_Width: 103
      m_Height: 86.5
      m_HorizontalBearingX: -51.5
      m_HorizontalBearingY: 43.25
      m_HorizontalAdvance: 103
    m_GlyphRect:
      m_X: 1027
      m_Y: 279
      m_Width: 103
      m_Height: 86
    m_Scale: 2
    m_AtlasIndex: 0
    sprite: {fileID: 728180744, guid: ba132609bcbebfd4ca04947d6b0297e5, type: 3}
  - m_Index: 21
    m_Metrics:
      m_Width: 71.5
      m_Height: 85
      m_HorizontalBearingX: -35.75
      m_HorizontalBearingY: 42.5
      m_HorizontalAdvance: 71.5
    m_GlyphRect:
      m_X: 359
      m_Y: 278
      m_Width: 71
      m_Height: 85
    m_Scale: 2
    m_AtlasIndex: 0
    sprite: {fileID: 787751962, guid: ba132609bcbebfd4ca04947d6b0297e5, type: 3}
  - m_Index: 22
    m_Metrics:
      m_Width: 65.5
      m_Height: 83
      m_HorizontalBearingX: -32.75
      m_HorizontalBearingY: 41.5
      m_HorizontalAdvance: 65.5
    m_GlyphRect:
      m_X: 447
      m_Y: 278
      m_Width: 65
      m_Height: 83
    m_Scale: 2
    m_AtlasIndex: 0
    sprite: {fileID: 1344640302, guid: ba132609bcbebfd4ca04947d6b0297e5, type: 3}
  - m_Index: 23
    m_Metrics:
      m_Width: 99
      m_Height: 90.5
      m_HorizontalBearingX: -49.5
      m_HorizontalBearingY: 45.25
      m_HorizontalAdvance: 99
    m_GlyphRect:
      m_X: 1304
      m_Y: 276
      m_Width: 99
      m_Height: 90
    m_Scale: 2
    m_AtlasIndex: 0
    sprite: {fileID: -1575363368, guid: ba132609bcbebfd4ca04947d6b0297e5, type: 3}
  - m_Index: 24
    m_Metrics:
      m_Width: 103.5
      m_Height: 86
      m_HorizontalBearingX: -51.75
      m_HorizontalBearingY: 43
      m_HorizontalAdvance: 103.5
    m_GlyphRect:
      m_X: 1559
      m_Y: 275
      m_Width: 103
      m_Height: 86
    m_Scale: 2
    m_AtlasIndex: 0
    sprite: {fileID: 2098685233, guid: ba132609bcbebfd4ca04947d6b0297e5, type: 3}
  - m_Index: 25
    m_Metrics:
      m_Width: 80.5
      m_Height: 89.5
      m_HorizontalBearingX: -40.25
      m_HorizontalBearingY: 44.75
      m_HorizontalAdvance: 80.5
    m_GlyphRect:
      m_X: 527
      m_Y: 275
      m_Width: 80
      m_Height: 89
    m_Scale: 2
    m_AtlasIndex: 0
    sprite: {fileID: 542689816, guid: ba132609bcbebfd4ca04947d6b0297e5, type: 3}
  - m_Index: 26
    m_Metrics:
      m_Width: 98.5
      m_Height: 83.5
      m_HorizontalBearingX: -49.25
      m_HorizontalBearingY: 41.75
      m_HorizontalAdvance: 98.5
    m_GlyphRect:
      m_X: 242
      m_Y: 273
      m_Width: 98
      m_Height: 83
    m_Scale: 2
    m_AtlasIndex: 0
    sprite: {fileID: 2035837831, guid: ba132609bcbebfd4ca04947d6b0297e5, type: 3}
  - m_Index: 27
    m_Metrics:
      m_Width: 49.5
      m_Height: 81.5
      m_HorizontalBearingX: -24.75
      m_HorizontalBearingY: 40.75
      m_HorizontalAdvance: 49.5
    m_GlyphRect:
      m_X: 621
      m_Y: 270
      m_Width: 49
      m_Height: 81
    m_Scale: 2
    m_AtlasIndex: 0
    sprite: {fileID: 163451252, guid: ba132609bcbebfd4ca04947d6b0297e5, type: 3}
  - m_Index: 28
    m_Metrics:
      m_Width: 218.5
      m_Height: 119.5
      m_HorizontalBearingX: 9.7
      m_HorizontalBearingY: 94.9
      m_HorizontalAdvance: 228.9
    m_GlyphRect:
      m_X: 7
      m_Y: 247
      m_Width: 218
      m_Height: 119
    m_Scale: 2
    m_AtlasIndex: 0
    sprite: {fileID: -507988016, guid: ba132609bcbebfd4ca04947d6b0297e5, type: 3}
  - m_Index: 29
    m_Metrics:
      m_Width: 287.5
      m_Height: 77.5
      m_HorizontalBearingX: 4.1
      m_HorizontalBearingY: 61
      m_HorizontalAdvance: 294.28
    m_GlyphRect:
      m_X: 746
      m_Y: 167
      m_Width: 287
      m_Height: 77
    m_Scale: 2
    m_AtlasIndex: 0
    sprite: {fileID: -1665554784, guid: ba132609bcbebfd4ca04947d6b0297e5, type: 3}
  - m_Index: 30
    m_Metrics:
      m_Width: 138
      m_Height: 88
      m_HorizontalBearingX: -69
      m_HorizontalBearingY: 44
      m_HorizontalAdvance: 72.21
    m_GlyphRect:
      m_X: 1342
      m_Y: 166
      m_Width: 138
      m_Height: 88
    m_Scale: 2
    m_AtlasIndex: 0
    sprite: {fileID: 1322320335, guid: ba132609bcbebfd4ca04947d6b0297e5, type: 3}
  - m_Index: 31
    m_Metrics:
      m_Width: 193
      m_Height: 79.5
      m_HorizontalBearingX: -96.5
      m_HorizontalBearingY: 39.75
      m_HorizontalAdvance: 193
    m_GlyphRect:
      m_X: 1514
      m_Y: 158
      m_Width: 193
      m_Height: 79
    m_Scale: 2
    m_AtlasIndex: 0
    sprite: {fileID: 1859831198, guid: ba132609bcbebfd4ca04947d6b0297e5, type: 3}
  - m_Index: 32
    m_Metrics:
      m_Width: 180
      m_Height: 79.5
      m_HorizontalBearingX: -90
      m_HorizontalBearingY: 39.75
      m_HorizontalAdvance: 180
    m_GlyphRect:
      m_X: 1745
      m_Y: 158
      m_Width: 180
      m_Height: 79
    m_Scale: 2
    m_AtlasIndex: 0
    sprite: {fileID: -2041795689, guid: ba132609bcbebfd4ca04947d6b0297e5, type: 3}
  - m_Index: 33
    m_Metrics:
      m_Width: 158.5
      m_Height: 84.5
      m_HorizontalBearingX: -79.25
      m_HorizontalBearingY: 42.25
      m_HorizontalAdvance: 158.5
    m_GlyphRect:
      m_X: 1120
      m_Y: 150
      m_Width: 158
      m_Height: 84
    m_Scale: 2
    m_AtlasIndex: 0
    sprite: {fileID: -1810331118, guid: ba132609bcbebfd4ca04947d6b0297e5, type: 3}
  - m_Index: 34
    m_Metrics:
      m_Width: 90.5
      m_Height: 86.5
      m_HorizontalBearingX: -45.25
      m_HorizontalBearingY: 43.25
      m_HorizontalAdvance: 90.5
    m_GlyphRect:
      m_X: 103
      m_Y: 146
      m_Width: 90
      m_Height: 86
    m_Scale: 2
    m_AtlasIndex: 0
    sprite: {fileID: 2019058293, guid: ba132609bcbebfd4ca04947d6b0297e5, type: 3}
  - m_Index: 35
    m_Metrics:
      m_Width: 71
      m_Height: 85
      m_HorizontalBearingX: -33.2
      m_HorizontalBearingY: 45.6
      m_HorizontalAdvance: 48.1
    m_GlyphRect:
      m_X: 18
      m_Y: 145
      m_Width: 71
      m_Height: 85
    m_Scale: 2
    m_AtlasIndex: 0
    sprite: {fileID: -209476092, guid: ba132609bcbebfd4ca04947d6b0297e5, type: 3}
  - m_Index: 36
    m_Metrics:
      m_Width: 93.5
      m_Height: 84
      m_HorizontalBearingX: -46.75
      m_HorizontalBearingY: 42
      m_HorizontalAdvance: 93.5
    m_GlyphRect:
      m_X: 204
      m_Y: 144
      m_Width: 93
      m_Height: 84
    m_Scale: 2
    m_AtlasIndex: 0
    sprite: {fileID: 2065477809, guid: ba132609bcbebfd4ca04947d6b0297e5, type: 3}
  - m_Index: 37
    m_Metrics:
      m_Width: 95.5
      m_Height: 86
      m_HorizontalBearingX: -47.75
      m_HorizontalBearingY: 43
      m_HorizontalAdvance: 95.5
    m_GlyphRect:
      m_X: 310
      m_Y: 143
      m_Width: 95
      m_Height: 86
    m_Scale: 2
    m_AtlasIndex: 0
    sprite: {fileID: 1512352923, guid: ba132609bcbebfd4ca04947d6b0297e5, type: 3}
  - m_Index: 38
    m_Metrics:
      m_Width: 90.5
      m_Height: 81
      m_HorizontalBearingX: -45.25
      m_HorizontalBearingY: 40.5
      m_HorizontalAdvance: 90.5
    m_GlyphRect:
      m_X: 420
      m_Y: 143
      m_Width: 90
      m_Height: 81
    m_Scale: 2
    m_AtlasIndex: 0
    sprite: {fileID: 1578061879, guid: ba132609bcbebfd4ca04947d6b0297e5, type: 3}
  - m_Index: 39
    m_Metrics:
      m_Width: 100
      m_Height: 79.5
      m_HorizontalBearingX: -50
      m_HorizontalBearingY: 39.75
      m_HorizontalAdvance: 100
    m_GlyphRect:
      m_X: 524
      m_Y: 142
      m_Width: 100
      m_Height: 79
    m_Scale: 2
    m_AtlasIndex: 0
    sprite: {fileID: 1947430995, guid: ba132609bcbebfd4ca04947d6b0297e5, type: 3}
  - m_Index: 40
    m_Metrics:
      m_Width: 163.5
      m_Height: 61.5
      m_HorizontalBearingX: -81.75
      m_HorizontalBearingY: 30.75
      m_HorizontalAdvance: 163.5
    m_GlyphRect:
      m_X: 750
      m_Y: 89
      m_Width: 163
      m_Height: 61
    m_Scale: 2
    m_AtlasIndex: 0
    sprite: {fileID: -1622296928, guid: ba132609bcbebfd4ca04947d6b0297e5, type: 3}
  - m_Index: 41
    m_Metrics:
      m_Width: 189.5
      m_Height: 81
      m_HorizontalBearingX: -94.75
      m_HorizontalBearingY: 40.5
      m_HorizontalAdvance: 189.5
    m_GlyphRect:
      m_X: 1344
      m_Y: 75
      m_Width: 189
      m_Height: 81
    m_Scale: 2
    m_AtlasIndex: 0
    sprite: {fileID: 259781750, guid: ba132609bcbebfd4ca04947d6b0297e5, type: 3}
  - m_Index: 42
    m_Metrics:
      m_Width: 188.5
      m_Height: 86
      m_HorizontalBearingX: -94.25
      m_HorizontalBearingY: 43
      m_HorizontalAdvance: 188.5
    m_GlyphRect:
      m_X: 1773
      m_Y: 35
      m_Width: 188
      m_Height: 86
    m_Scale: 2
    m_AtlasIndex: 0
    sprite: {fileID: -1084477253, guid: ba132609bcbebfd4ca04947d6b0297e5, type: 3}
  - m_Index: 43
    m_Metrics:
      m_Width: 181
      m_Height: 90.5
      m_HorizontalBearingX: -90.5
      m_HorizontalBearingY: 45.25
      m_HorizontalAdvance: 181
    m_GlyphRect:
      m_X: 1561
      m_Y: 32
      m_Width: 181
      m_Height: 90
    m_Scale: 2
    m_AtlasIndex: 0
    sprite: {fileID: -1785915777, guid: ba132609bcbebfd4ca04947d6b0297e5, type: 3}
  - m_Index: 44
    m_Metrics:
      m_Width: 156
      m_Height: 81.5
      m_HorizontalBearingX: -78
      m_HorizontalBearingY: 40.75
      m_HorizontalAdvance: 156
    m_GlyphRect:
      m_X: 1145
      m_Y: 30
      m_Width: 156
      m_Height: 81
    m_Scale: 2
    m_AtlasIndex: 0
    sprite: {fileID: -1544056721, guid: ba132609bcbebfd4ca04947d6b0297e5, type: 3}
  - m_Index: 45
    m_Metrics:
      m_Width: 138
      m_Height: 96.5
      m_HorizontalBearingX: -69
      m_HorizontalBearingY: 48.25
      m_HorizontalAdvance: 138
    m_GlyphRect:
      m_X: 9
      m_Y: 28
      m_Width: 138
      m_Height: 96
    m_Scale: 2
    m_AtlasIndex: 0
    sprite: {fileID: 1367834927, guid: ba132609bcbebfd4ca04947d6b0297e5, type: 3}
  - m_Index: 46
    m_Metrics:
      m_Width: 187.5
      m_Height: 60.5
      m_HorizontalBearingX: -93.75
      m_HorizontalBearingY: 30.25
      m_HorizontalAdvance: 187.5
    m_GlyphRect:
      m_X: 748
      m_Y: 24
      m_Width: 187
      m_Height: 60
    m_Scale: 2
    m_AtlasIndex: 0
    sprite: {fileID: 2082499325, guid: ba132609bcbebfd4ca04947d6b0297e5, type: 3}
  - m_Index: 47
    m_Metrics:
      m_Width: 188.5
      m_Height: 101.5
      m_HorizontalBearingX: -84.91
      m_HorizontalBearingY: 65.1
      m_HorizontalAdvance: 107.8
    m_GlyphRect:
      m_X: 234
      m_Y: 20
      m_Width: 188
      m_Height: 101
    m_Scale: 2
    m_AtlasIndex: 0
    sprite: {fileID: -1123209704, guid: ba132609bcbebfd4ca04947d6b0297e5, type: 3}
  - m_Index: 48
    m_Metrics:
      m_Width: 162
      m_Height: 73.5
      m_HorizontalBearingX: -81
      m_HorizontalBearingY: 36.75
      m_HorizontalAdvance: 162
    m_GlyphRect:
      m_X: 954
      m_Y: 15
      m_Width: 162
      m_Height: 73
    m_Scale: 2
    m_AtlasIndex: 0
    sprite: {fileID: 269376585, guid: ba132609bcbebfd4ca04947d6b0297e5, type: 3}
  spriteInfoList: []
  fallbackSpriteAssets: []
--- !u!21 &6531130159517211508
Material:
  serializedVersion: 8
  m_ObjectHideFlags: 1
  m_CorrespondingSourceObject: {fileID: 0}
  m_PrefabInstance: {fileID: 0}
  m_PrefabAsset: {fileID: 0}
  m_Name: TextMeshPro/Sprite
  m_Shader: {fileID: 4800000, guid: cf81c85f95fe47e1a27f6ae460cf182c, type: 3}
  m_ValidKeywords: []
  m_InvalidKeywords: []
  m_LightmapFlags: 4
  m_EnableInstancingVariants: 0
  m_DoubleSidedGI: 0
  m_CustomRenderQueue: -1
  stringTagMap: {}
  disabledShaderPasses: []
  m_SavedProperties:
    serializedVersion: 3
    m_TexEnvs:
    - _MainTex:
        m_Texture: {fileID: 2800000, guid: ba132609bcbebfd4ca04947d6b0297e5, type: 3}
        m_Scale: {x: 1, y: 1}
        m_Offset: {x: 0, y: 0}
    m_Ints: []
    m_Floats:
    - _ColorMask: 15
    - _CullMode: 0
    - _Stencil: 0
    - _StencilComp: 8
    - _StencilOp: 0
    - _StencilReadMask: 255
    - _StencilWriteMask: 255
    - _UseUIAlphaClip: 0
    m_Colors:
    - _ClipRect: {r: -32767, g: -32767, b: 32767, a: 32767}
    - _Color: {r: 1, g: 1, b: 1, a: 1}
  m_BuildTextureStacks: []
