%YAML 1.1
%TAG !u! tag:unity3d.com,2011:
--- !u!114 &11400000
MonoBehaviour:
  m_ObjectHideFlags: 0
  m_CorrespondingSourceObject: {fileID: 0}
  m_PrefabInstance: {fileID: 0}
  m_PrefabAsset: {fileID: 0}
  m_GameObject: {fileID: 0}
  m_Enabled: 1
  m_EditorHideFlags: 0
  m_Script: {fileID: 11500000, guid: 173356dd2979fa743b9a516ed99298c5, type: 3}
  m_Name: 2_6
  m_EditorClassIdentifier: 
  questionInfo: Bentuk sederhana dari <sprite name="6"> adalah
  answers:
  - type: 0
    answerInfo: <sprite name="6a">
    imageSprite: {fileID: 2035837831, guid: ba132609bcbebfd4ca04947d6b0297e5, type: 3}
    correctAnswer: 1
  - type: 0
    answerInfo: <sprite name="6b">
    imageSprite: {fileID: 787751962, guid: ba132609bcbebfd4ca04947d6b0297e5, type: 3}
    correctAnswer: 0
  - type: 0
    answerInfo: <sprite name="6c">
    imageSprite: {fileID: 1344640302, guid: ba132609bcbebfd4ca04947d6b0297e5, type: 3}
    correctAnswer: 0
  - type: 0
    answerInfo: <sprite name="6d">
    imageSprite: {fileID: 542689816, guid: ba132609bcbebfd4ca04947d6b0297e5, type: 3}
    correctAnswer: 0
  - type: 0
    answerInfo: <sprite name="6e">
    imageSprite: {fileID: 163451252, guid: ba132609bcbebfd4ca04947d6b0297e5, type: 3}
    correctAnswer: 0
