%YAML 1.1
%TAG !u! tag:unity3d.com,2011:
--- !u!114 &11400000
MonoBehaviour:
  m_ObjectHideFlags: 0
  m_CorrespondingSourceObject: {fileID: 0}
  m_PrefabInstance: {fileID: 0}
  m_PrefabAsset: {fileID: 0}
  m_GameObject: {fileID: 0}
  m_Enabled: 1
  m_EditorHideFlags: 0
  m_Script: {fileID: 11500000, guid: 173356dd2979fa743b9a516ed99298c5, type: 3}
  m_Name: 1_2
  m_EditorClassIdentifier: 
  questionInfo: Bentuk sederhana dari <sprite name="2"> adalah
  answers:
  - answerInfo: 1
    correctAnswer: 0
  - answerInfo: 3
    correctAnswer: 0
  - answerInfo: 9
    correctAnswer: 0
  - answerInfo: 27
    correctAnswer: 1
  - answerInfo: 81
    correctAnswer: 0
