%YAML 1.1
%TAG !u! tag:unity3d.com,2011:
--- !u!114 &11400000
MonoBehaviour:
  m_ObjectHideFlags: 0
  m_CorrespondingSourceObject: {fileID: 0}
  m_PrefabInstance: {fileID: 0}
  m_PrefabAsset: {fileID: 0}
  m_GameObject: {fileID: 0}
  m_Enabled: 1
  m_EditorHideFlags: 0
  m_Script: {fileID: 11500000, guid: 248709ae748b94e42b4501b0522c0659, type: 3}
  m_Name: MissionData3
  m_EditorClassIdentifier: 
  gameData:
    previewImage: {fileID: 21300000, guid: b7ce77c46eab3f546bd27450bebea083, type: 3}
    previewClip: {fileID: 0}
    previewText: "Anda sudah berhasil menyelesaikan misi 2. Tantangannya semakin
      sulit bukan?\n\nPada misi 3, Anda akan menemukan tantangan yang lebih sulit
      lagi. Semangat\u2026 Anda pasti bisa menyelesaikannya!"
    previewPopUpText: Jika Anda mendapatkan skor minimal 140, Anda akan mendapatkan
      1 bintang, 1 tongkat dan mengganti panah dengan desain yang lebih bagus
    winPopUpText: "Yeay\u2026 selamat, Anda dapat melanjutkan misi 4 untuk membantu
      Nenek"
    losePopUpText: Anda belum berhasil membantu Nenek, gunakan 1 bintang untuk mengulangi
      misi  1
    level: 3
    star: 1
    stick: 1
    minimumScore: 140
    correctAnswerScore: 20
    guideClip: {fileID: 8300000, guid: f8fcd68e60ff41046b378dcfa3f2da65, type: 3}
    speechClip: {fileID: 8300000, guid: 17885a6a69b98b040bdcc0ac82aae554, type: 3}
    winClip: {fileID: 8300000, guid: b80d9418d9131ad4599187e58bbd0787, type: 3}
    loseClip: {fileID: 8300000, guid: 8519816c4b5a1d842a394baa29b65c59, type: 3}
    timerTime: 15
    shouldUnlockWeapon: 1
    spriteAsset: {fileID: 11400000, guid: 86587db4a95adb44c944b8ee073d27dc, type: 2}
    maxQuestion: 10
    spriteTantangan:
    - {fileID: 21300000, guid: 199014b50755be442af6aa5a685a8086, type: 3}
    - {fileID: 21300000, guid: 61180740f00b6cb4480f811957a6be92, type: 3}
    - {fileID: 21300000, guid: b36082dcc6efbb646897f13fab458a20, type: 3}
    - {fileID: 21300000, guid: 6e6129ed2889d7c478253669e2b3f46e, type: 3}
    - {fileID: 21300000, guid: 11f0d086b549c7549905a727c6746885, type: 3}
    - {fileID: 21300000, guid: cb6df1ce7caa67f43bef2b200e3ccb51, type: 3}
    - {fileID: 21300000, guid: 3433d5cc99816f5478fb6ccee40b1cac, type: 3}
    - {fileID: 21300000, guid: d2fd9dfe193c0454c96fa82b75e6e3d4, type: 3}
    - {fileID: 21300000, guid: 8a858b6ac3460b44280901d2aa852ac1, type: 3}
    - {fileID: 21300000, guid: 0d42a5df1c5ba9a4881a894d81958f60, type: 3}
    questionsData:
    - {fileID: 11400000, guid: d2704bf96c9de00419dbc7d4ced2e06b, type: 2}
    - {fileID: 11400000, guid: e2ee1f1e66bb365429eb9a62be38b166, type: 2}
    - {fileID: 11400000, guid: 7188b2982276fdb4f96f639176318c72, type: 2}
    - {fileID: 11400000, guid: 02512ae4da2cfc94d89ac5d0cb77421a, type: 2}
    - {fileID: 11400000, guid: 7ba844c7800ceef40ba0058a8d830f23, type: 2}
    - {fileID: 11400000, guid: ab53d9561733653499dd4786da23b6ea, type: 2}
    - {fileID: 11400000, guid: 11b5924ba121701459b3831f89db1429, type: 2}
    - {fileID: 11400000, guid: 6daf7862f7024714993e68b1e8de2ea3, type: 2}
    - {fileID: 11400000, guid: b4a555e3d1da5ae41bb63ee6ada75a8a, type: 2}
    - {fileID: 11400000, guid: 29ac4e4518ef4584cb0a73473a09b369, type: 2}
    - {fileID: 11400000, guid: 7ec94697f91fe604ea5080f6a3084916, type: 2}
    - {fileID: 11400000, guid: cc2e43ad424ba2943a1e00190961977b, type: 2}
    - {fileID: 11400000, guid: 36844972d8e92854eaee07efcb15b067, type: 2}
    - {fileID: 11400000, guid: 948fa05ffb08dec4c8a5fa4081961273, type: 2}
    - {fileID: 11400000, guid: b996416d1d2a1fb49a0abd36ff47c226, type: 2}
