%YAML 1.1
%TAG !u! tag:unity3d.com,2011:
--- !u!114 &11400000
MonoBehaviour:
  m_ObjectHideFlags: 0
  m_CorrespondingSourceObject: {fileID: 0}
  m_PrefabInstance: {fileID: 0}
  m_PrefabAsset: {fileID: 0}
  m_GameObject: {fileID: 0}
  m_Enabled: 1
  m_EditorHideFlags: 0
  m_Script: {fileID: 11500000, guid: 173356dd2979fa743b9a516ed99298c5, type: 3}
  m_Name: 4_12
  m_EditorClassIdentifier: 
  questionInfo: Untuk mengamati pertumbuhan suatu bakteri pada inangnya, seorang
    peneliti mengambil potongan inang yang sudah terinfeksi bakteri tersebut dan
    mengamatinya selama 4 jam pertama. Pada inang tersebut, terdapat 40 bakteri.
    Setelah diamati, bakteri tersebut membelah menjadi dua setiap 30 menit. Pada
    jam ke-4, banyak bateri baru yang tumbuh adalah
  spriteAsset: {fileID: 0}
  answers:
  - answerInfo: 1.560
    spriteAsset: {fileID: 0}
    correctAnswer: 0
  - answerInfo: 1.800
    spriteAsset: {fileID: 0}
    correctAnswer: 0
  - answerInfo: 1.920
    spriteAsset: {fileID: 0}
    correctAnswer: 0
  - answerInfo: 2.460
    spriteAsset: {fileID: 0}
    correctAnswer: 0
  - answerInfo: 2.560
    spriteAsset: {fileID: 0}
    correctAnswer: 1
