%YAML 1.1
%TAG !u! tag:unity3d.com,2011:
--- !u!114 &11400000
MonoBehaviour:
  m_ObjectHideFlags: 0
  m_CorrespondingSourceObject: {fileID: 0}
  m_PrefabInstance: {fileID: 0}
  m_PrefabAsset: {fileID: 0}
  m_GameObject: {fileID: 0}
  m_Enabled: 1
  m_EditorHideFlags: 0
  m_Script: {fileID: 11500000, guid: 173356dd2979fa743b9a516ed99298c5, type: 3}
  m_Name: 4_14
  m_EditorClassIdentifier: 
  questionInfo: Bakteri E.coli menyebabkan penyakit diare pada manusia. Seorang peneliti
    mengamati pertumbuhan 20 bakteri ini pada sepotong makanan dan menemukan bahwa
    bakteri ini membelah menjadi 3 setiap seperempat jam. Model fungsi yang menggambarkan
    pertumbuhan bakteri E.coli setiap seperempat jam adalah
  spriteAsset: {fileID: 0}
  answers:
  - answerInfo: 20(3x)
    spriteAsset: {fileID: 0}
    correctAnswer: 0
  - answerInfo: 20(6<sup>x</sup>)
    spriteAsset: {fileID: 0}
    correctAnswer: 0
  - answerInfo: 20(6x)
    spriteAsset: {fileID: 0}
    correctAnswer: 0
  - answerInfo: 20(3<sup>x</sup>)
    spriteAsset: {fileID: 0}
    correctAnswer: 1
  - answerInfo: 20<sup>3x</sup>
    spriteAsset: {fileID: 0}
    correctAnswer: 0
