%YAML 1.1
%TAG !u! tag:unity3d.com,2011:
--- !u!114 &11400000
MonoBehaviour:
  m_ObjectHideFlags: 0
  m_CorrespondingSourceObject: {fileID: 0}
  m_PrefabInstance: {fileID: 0}
  m_PrefabAsset: {fileID: 0}
  m_GameObject: {fileID: 0}
  m_Enabled: 1
  m_EditorHideFlags: 0
  m_Script: {fileID: 11500000, guid: 173356dd2979fa743b9a516ed99298c5, type: 3}
  m_Name: 4_3
  m_EditorClassIdentifier: 
  questionInfo: Selembar kertas origami berbentuk persegi dilipat di tengah-tengah
    sehingga garis lipatan membagi bidang kertas menjadi dua bidang yang sama. Kemudian
    di lipat lagi dengan cara yang sama dengan kertas hasil lipatan tadi. Aktivitas
    tersebut dilakukan secara terus menerus. Banyak bidang kertas yang terbentuk
    apabila dilipat sebanyak 9 kali adalah
  spriteAsset: {fileID: 0}
  answers:
  - answerInfo: 1.024
    spriteAsset: {fileID: 0}
    correctAnswer: 0
  - answerInfo: 512
    spriteAsset: {fileID: 0}
    correctAnswer: 1
  - answerInfo: 256
    spriteAsset: {fileID: 0}
    correctAnswer: 0
  - answerInfo: 128
    spriteAsset: {fileID: 0}
    correctAnswer: 0
  - answerInfo: 64
    spriteAsset: {fileID: 0}
    correctAnswer: 0
